tau_LOKI_DOCAMAX	0	0.16400000000000001	100	""	lin
B0_LOKI_BPVDIRA	0.9988800000000001	1.0001000000000002	100	""	lin
tau_LOKI_VFASPF_VCHI2VDOF	0	9.1000000000000014	100	""	lin
tau_LOKI_VFASPF_VPCHI2	0	1.1000000000000001	100	""	lin
D0_LOKI_MIPDV_PRIMARY	0	28.5	100	""	lin
tau_LOKI_BPVDIRA	0.98899999999999999	1.0010000000000001	100	""	lin
tau_LOKI_BPVVDR	0	176	100	""	lin
D0_LOKI_BPVVDR	0	192	100	""	lin
min(min((tau_pion0_LOKI_PT),(tau_pion1_LOKI_PT)),(tau_pion2_LOKI_PT))	0	104000	100	""	lin
dz_kaon_LOKI_MIPDV_PRIMARY	0	70	100	""	lin
dz_pion_LOKI_MIPDV_PRIMARY	0	96	100	""	lin
min(min((tau_pion0_LOKI_TRPCHI2),(tau_pion1_LOKI_TRPCHI2)),(tau_pion2_LOKI_TRPCHI2))	0	1.0800000000000001	100	""	lin
Dst_LOKI_BPVDIRA	-1.2000000000000002	1.2	100	""	lin
min(min((tau_pion0_LOKI_TRLH),(tau_pion1_LOKI_TRLH)),(tau_pion2_LOKI_TRLH))	-122	0	100	""	lin
max(max((tau_pion0_LOKI_MIPDV_PRIMARY),(tau_pion1_LOKI_MIPDV_PRIMARY)),(tau_pion2_LOKI_MIPDV_PRIMARY))	0	212	100	""	lin
max(max((tau_pion0_LOKI_TRCHI2),(tau_pion1_LOKI_TRCHI2)),(tau_pion2_LOKI_TRCHI2))	0	174	100	""	lin
min(min((tau_pion0_LOKI_P),(tau_pion1_LOKI_P)),(tau_pion2_LOKI_P))	0	1100000	100	""	lin
B0_LOKI_VFASPF_VPCHI2	0	1.1000000000000001	100	""	lin
D0_LOKI_BPVDIRA	0.99890000000000012	1.0001000000000002	100	""	lin
dz_pion_LOKI_BPVIPCHI2	0	425000	100	""	lin
dst_pion_LOKI_TRPCHI2	0	1.0800000000000001	100	""	lin
max(max((tau_pion0_LOKI_PT),(tau_pion1_LOKI_PT)),(tau_pion2_LOKI_PT))	0	450000	100	""	lin
dz_pion_LOKI_PT	0	225000	100	""	lin
dst_pion_LOKI_TRCHI2	0	158	100	""	lin
min(min((tau_pion0_LOKI_TRCHI2DOF),(tau_pion1_LOKI_TRCHI2DOF)),(tau_pion2_LOKI_TRCHI2DOF))	0	3.2500000000000004	100	""	lin
dz_kaon_LOKI_PT	0	440000	100	""	lin
min(min((tau_pion0_LOKI_TRCHI2),(tau_pion1_LOKI_TRCHI2)),(tau_pion2_LOKI_TRCHI2))	0	152	100	""	lin
tau_LOKI_DOCACHI2MAX	0	680	100	""	lin
max(max((tau_pion0_LOKI_P),(tau_pion1_LOKI_P)),(tau_pion2_LOKI_P))	0	3800000	100	""	lin
max(max((tau_pion0_LOKI_TRLH),(tau_pion1_LOKI_TRLH)),(tau_pion2_LOKI_TRLH))	-114	116	100	""	lin
min(min((tau_pion0_LOKI_MIPDV_PRIMARY),(tau_pion1_LOKI_MIPDV_PRIMARY)),(tau_pion2_LOKI_MIPDV_PRIMARY))	0	128	100	""	lin
max(max((tau_pion0_LOKI_BPVIPCHI2),(tau_pion1_LOKI_BPVIPCHI2)),(tau_pion2_LOKI_BPVIPCHI2))	0	1480000	100	""	lin
tau_LOKI_BPVVDCHI2	-3500000	51000000	100	""	lin
tau_LOKI_BPVIPCHI2	-580000	1480000	100	""	lin
min(min((tau_pion0_LOKI_MIPCHI2DV_PRIMARY),(tau_pion1_LOKI_MIPCHI2DV_PRIMARY)),(tau_pion2_LOKI_MIPCHI2DV_PRIMARY))	0	700000	100	""	lin
